<?xml version="1.0" encoding="utf-8"?>
<!-- Generator: Adobe Illustrator 18.1.1, SVG Export Plug-In . SVG Version: 6.00 Build 0)  -->
<svg version="1.1" id="svg2" xmlns:svg="http://www.w3.org/2000/svg"
	 xmlns="http://www.w3.org/2000/svg" xmlns:xlink="http://www.w3.org/1999/xlink" x="0px" y="0px" viewBox="0 123.3 595.3 595.3"
	 enable-background="new 0 123.3 595.3 595.3" xml:space="preserve">
<g id="g12" transform="matrix(1.25,0,0,-1.25,0,47.5)">
	<g id="g14">
		<g>
			<defs>
				<rect id="SVGID_1_" x="-59.5" y="-596.4" width="595.3" height="595.3"/>
			</defs>
			<clipPath id="SVGID_2_">
				<use xlink:href="#SVGID_1_"  overflow="visible"/>
			</clipPath>
			<g id="g16" clip-path="url(#SVGID_2_)">
				<g id="g22" transform="translate(23.4941,31.6558)">
					<g id="path24">
						<g>
							<path fill="none" stroke="#D4D4D4" stroke-width="14" stroke-miterlimit="10" d="M270.9-171.8c-3.2,0-6.4-0.1-9.6-0.3"/>
							<path fill="none" stroke="#D4D4D4" stroke-width="14" stroke-miterlimit="10" stroke-dasharray="24.245,24.245" d="
								M242.1-173.6c-11.6,1.2-31.6,2.5-41.1,2.5C94.8-171.1,1.9-210.9,1.9-350.3c0-113.2,88.3-205,212.7-205s225.2,91.8,225.2,205
								c0,125.4-93,168.9-149.7,177"/>
							<path fill="none" stroke="#D4D4D4" stroke-width="14" stroke-miterlimit="10" d="M280.5-172.2c-3.4,0.3-6.6,0.4-9.6,0.4"/>
						</g>
					</g>
				</g>
				<g id="g26" transform="translate(9.439,36.9087)">
					
						<path id="path28" fill="#D4D4D4" stroke="#D4D4D4" stroke-width="14" stroke-linecap="round" stroke-linejoin="round" stroke-miterlimit="10" d="
						M144.6-134c14-14,23.7-19.4,28-42c2.6-13.4,19.4-12.9,19.4-12.9s-33.4-15.1-47.4-29.1c0,0,42,14,56.1,14c0,0,28-14,28-28
						c0,0,0,28-14,28c0,0,42,0,42-28c0,0,0,42.1-14,42.1c0,0,42.1,14,56.1,0c0,0-14.4,14.7-42.1,14c0,0,14,14,42.1,14
						c0,0-45.3,12.9-59.3-15.1c0,0-11.9,11.9,11.9,35.6c0,0-36.7-6.5-36.7-34.5c0,0-13.3,0.3-22.6,10.8
						C173.7-144.7,144.6-134,144.6-134"/>
				</g>
			</g>
		</g>
	</g>
</g>
</svg>
